Counter events :
	 all events                                    4200 	 1.00 	 1.0000
	 has >=1 tau at preselection                   2239 	 0.53 	 0.5331
	 has >=1 selected taus                           88 	 0.04 	 0.0210
	 has >=1 other taus                            2199 	 24.99 	 0.5236

