Counter events :
	 all events                                    4200 	 1.00 	 1.0000
	 has >=1 tau at preselection                   2246 	 0.53 	 0.5348
	 has >=1 selected taus                          103 	 0.05 	 0.0245
	 has >=1 other taus                            2205 	 21.41 	 0.5250

