Counter events :
	 all events                                    1000 	 1.00 	 1.0000
	 has >=1 tau at preselection                    985 	 0.98 	 0.9850
	 has >=1 selected taus                          117 	 0.12 	 0.1170
	 has >=1 other taus                             979 	 8.37 	 0.9790

