Counter events :
	 all events                                    4200 	 1.00 	 1.0000
	 has >=1 tau at preselection                   2243 	 0.53 	 0.5340
	 has >=1 selected taus                           98 	 0.04 	 0.0233
	 has >=1 other taus                            2202 	 22.47 	 0.5243

