Counter events :
	 all events                                    4200 	 1.00 	 1.0000
	 has >=1 tau at preselection                   2272 	 0.54 	 0.5410
	 has >=1 selected taus                           90 	 0.04 	 0.0214
	 has >=1 other taus                            2226 	 24.73 	 0.5300

