Counter events :
	 all events                                    4200 	 1.00 	 1.0000
	 has >=1 tau at preselection                   2269 	 0.54 	 0.5402
	 has >=1 selected taus                           91 	 0.04 	 0.0217
	 has >=1 other taus                            2232 	 24.53 	 0.5314

