Counter events :
	 all events                                    1000 	 1.00 	 1.0000
	 has >=1 gamma at preselection                  706 	 0.71 	 0.7060
	 has >=1 selected gamma                          26 	 0.04 	 0.0260

