Counter events :
	 all events                                    4200 	 1.00 	 1.0000
	 has >=1 gamma at preselection                  904 	 0.22 	 0.2152
	 has >=1 selected gamma                          25 	 0.03 	 0.0060

