Counter events :
	 all events                                    4200 	 1.00 	 1.0000
	 has >=1 tau at preselection                   2282 	 0.54 	 0.5433
	 has >=1 selected taus                          111 	 0.05 	 0.0264
	 has >=1 other taus                            2224 	 20.04 	 0.5295

