Counter events :
	 all events                                   42331 	 1.00 	 1.0000
	 has >=1 selected Track                           0 	 0.00 	 0.0000
	 has >=1 selected Iso Track                   42331 	 -1.00 	 1.0000

