Counter events :
	 all events                                    4200 	 1.00 	 1.0000
	 has >=1 gamma at preselection                  900 	 0.21 	 0.2143
	 has >=1 selected gamma                          21 	 0.02 	 0.0050

