Counter events :
	 all events                                    4200 	 1.00 	 1.0000
	 has >=1 gamma at preselection                  934 	 0.22 	 0.2224
	 has >=1 selected gamma                          25 	 0.03 	 0.0060

