Counter events :
	 all events                                   44853 	 1.00 	 1.0000
	 has >=1 gamma at preselection                32790 	 0.73 	 0.7311
	 has >=1 selected gamma                         943 	 0.03 	 0.0210

