Counter events :
	 all events                                   44574 	 1.00 	 1.0000
	 has >=1 tau at preselection                  44530 	 1.00 	 0.9990
	 has >=1 selected taus                         3406 	 0.08 	 0.0764
	 has >=1 other taus                           44528 	 13.07 	 0.9990

