Counter events :
	 all events                                    4200 	 1.00 	 1.0000
	 has >=1 tau at preselection                   2316 	 0.55 	 0.5514
	 has >=1 selected taus                          100 	 0.04 	 0.0238
	 has >=1 other taus                            2275 	 22.75 	 0.5417

