Counter events :
	 all events                                    4200 	 1.00 	 1.0000
	 has >=1 tau at preselection                   2239 	 0.53 	 0.5331
	 has >=1 selected taus                           85 	 0.04 	 0.0202
	 has >=1 other taus                            2200 	 25.88 	 0.5238

