Counter events :
	 all events                                    4200 	 1.00 	 1.0000
	 has >=1 tau at preselection                   2248 	 0.54 	 0.5352
	 has >=1 selected taus                          103 	 0.05 	 0.0245
	 has >=1 other taus                            2209 	 21.45 	 0.5260

