Counter events :
	 all events                                    4200 	 1.00 	 1.0000
	 has >=1 tau at preselection                   2265 	 0.54 	 0.5393
	 has >=1 selected taus                           81 	 0.04 	 0.0193
	 has >=1 other taus                            2230 	 27.53 	 0.5310

