Counter events :
	 all events                                    4200 	 1.00 	 1.0000
	 has >=1 selected Track                           0 	 0.00 	 0.0000
	 has >=1 selected Iso Track                    1803 	 -1.00 	 0.4293

