Counter events :
	 all events                                    4200 	 1.00 	 1.0000
	 has >=1 tau at preselection                   2257 	 0.54 	 0.5374
	 has >=1 selected taus                           93 	 0.04 	 0.0221
	 has >=1 other taus                            2224 	 23.91 	 0.5295

