Counter events :
	 all events                                    1000 	 1.00 	 1.0000
	 has >=1 gamma at preselection                  747 	 0.75 	 0.7470
	 has >=1 selected gamma                          16 	 0.02 	 0.0160

