Counter events :
	 all events                                    4200 	 1.00 	 1.0000
	 has >=1 gamma at preselection                  882 	 0.21 	 0.2100
	 has >=1 selected gamma                          28 	 0.03 	 0.0067

