Counter events :
	 all events                                    4200 	 1.00 	 1.0000
	 has >=1 tau at preselection                   2306 	 0.55 	 0.5490
	 has >=1 selected taus                           94 	 0.04 	 0.0224
	 has >=1 other taus                            2265 	 24.10 	 0.5393

