Counter events :
	 all events                                    4200 	 1.00 	 1.0000
	 has >=1 tau at preselection                   2260 	 0.54 	 0.5381
	 has >=1 selected taus                           89 	 0.04 	 0.0212
	 has >=1 other taus                            2226 	 25.01 	 0.5300

