Counter events :
	 all events                                    4200 	 1.00 	 1.0000
	 has >=1 gamma at preselection                  910 	 0.22 	 0.2167
	 has >=1 selected gamma                          20 	 0.02 	 0.0048

