Counter events :
	 all events                                    4200 	 1.00 	 1.0000
	 has >=1 tau at preselection                   2273 	 0.54 	 0.5412
	 has >=1 selected taus                           88 	 0.04 	 0.0210
	 has >=1 other taus                            2238 	 25.43 	 0.5329

