Counter events :
	 all events                                    1000 	 1.00 	 1.0000
	 has >=1 tau at preselection                    976 	 0.98 	 0.9760
	 has >=1 selected taus                          116 	 0.12 	 0.1160
	 has >=1 other taus                             972 	 8.38 	 0.9720

