Counter events :
	 all events                                    4200 	 1.00 	 1.0000
	 has >=1 gamma at preselection                  933 	 0.22 	 0.2221
	 has >=1 selected gamma                          37 	 0.04 	 0.0088

