Counter events :
	 all events                                    4200 	 1.00 	 1.0000
	 has >=1 gamma at preselection                  917 	 0.22 	 0.2183
	 has >=1 selected gamma                          31 	 0.03 	 0.0074

