Counter events :
	 all events                                    4200 	 1.00 	 1.0000
	 has >=1 gamma at preselection                  952 	 0.23 	 0.2267
	 has >=1 selected gamma                          30 	 0.03 	 0.0071

