Counter events :
	 all events                                    4200 	 1.00 	 1.0000
	 has >=1 tau at preselection                   2319 	 0.55 	 0.5521
	 has >=1 selected taus                           87 	 0.04 	 0.0207
	 has >=1 other taus                            2284 	 26.25 	 0.5438

