Counter events :
	 all events                                    4200 	 1.00 	 1.0000
	 has >=1 tau at preselection                   2235 	 0.53 	 0.5321
	 has >=1 selected taus                           80 	 0.04 	 0.0190
	 has >=1 other taus                            2199 	 27.49 	 0.5236

