Counter events :
	 all events                                    4200 	 1.00 	 1.0000
	 has >=1 gamma at preselection                  959 	 0.23 	 0.2283
	 has >=1 selected gamma                          18 	 0.02 	 0.0043

