Counter events :
	 all events                                    4200 	 1.00 	 1.0000
	 has >=1 gamma at preselection                  942 	 0.22 	 0.2243
	 has >=1 selected gamma                          25 	 0.03 	 0.0060

