Counter events :
	 all events                                    4200 	 1.00 	 1.0000
	 has >=1 gamma at preselection                  936 	 0.22 	 0.2229
	 has >=1 selected gamma                          19 	 0.02 	 0.0045

