Counter events :
	 all events                                   41774 	 1.00 	 1.0000
	 vetoed events                                    0 	 0.00 	 0.0000
	 accepted events                              41774 	 -1.00 	 1.0000

