Counter events :
	 all events                                   44762 	 1.00 	 1.0000
	 has >=1 selected Track                           0 	 0.00 	 0.0000
	 has >=1 selected Iso Track                   31618 	 -1.00 	 0.7064

