Counter events :
	 all events                                    4200 	 1.00 	 1.0000
	 vetoed events                                    0 	 0.00 	 0.0000
	 accepted events                               4200 	 -1.00 	 1.0000

