Counter events :
	 all events                                    4200 	 1.00 	 1.0000
	 has >=1 gamma at preselection                  951 	 0.23 	 0.2264
	 has >=1 selected gamma                          23 	 0.02 	 0.0055

