Counter events :
	 all events                                    4200 	 1.00 	 1.0000
	 has >=1 tau at preselection                   2316 	 0.55 	 0.5514
	 has >=1 selected taus                           97 	 0.04 	 0.0231
	 has >=1 other taus                            2278 	 23.48 	 0.5424

