Counter events :
	 all events                                    4200 	 1.00 	 1.0000
	 has >=1 gamma at preselection                  937 	 0.22 	 0.2231
	 has >=1 selected gamma                          14 	 0.01 	 0.0033

