Counter events :
	 all events                                    4200 	 1.00 	 1.0000
	 has >=1 gamma at preselection                  922 	 0.22 	 0.2195
	 has >=1 selected gamma                          23 	 0.02 	 0.0055

