Counter events :
	 all events                                    4200 	 1.00 	 1.0000
	 has >=1 tau at preselection                   2242 	 0.53 	 0.5338
	 has >=1 selected taus                          103 	 0.05 	 0.0245
	 has >=1 other taus                            2193 	 21.29 	 0.5221

