Counter events :
	 all events                                    4200 	 1.00 	 1.0000
	 has >=1 tau at preselection                   2260 	 0.54 	 0.5381
	 has >=1 selected taus                           91 	 0.04 	 0.0217
	 has >=1 other taus                            2217 	 24.36 	 0.5279

