Counter events :
	 all events                                    4200 	 1.00 	 1.0000
	 has >=1 gamma at preselection                  946 	 0.23 	 0.2252
	 has >=1 selected gamma                          28 	 0.03 	 0.0067

