Counter events :
	 all events                                    4200 	 1.00 	 1.0000
	 has >=1 gamma at preselection                  916 	 0.22 	 0.2181
	 has >=1 selected gamma                          21 	 0.02 	 0.0050

