Counter events :
	 all events                                    4200 	 1.00 	 1.0000
	 has >=1 gamma at preselection                  957 	 0.23 	 0.2279
	 has >=1 selected gamma                          25 	 0.03 	 0.0060

