Counter events :
	 all events                                    4200 	 1.00 	 1.0000
	 has >=1 tau at preselection                   2220 	 0.53 	 0.5286
	 has >=1 selected taus                           76 	 0.03 	 0.0181
	 has >=1 other taus                            2193 	 28.86 	 0.5221

