Counter events :
	 all events                                       0 	 -1.00 	 -1.0000
	 pass trigger                                     0 	 -1.00 	 -1.0000
	 pass veto                                        0 	 -1.00 	 -1.0000

