Counter events :
	 all events                                    4200 	 1.00 	 1.0000
	 has >=1 tau at preselection                   2312 	 0.55 	 0.5505
	 has >=1 selected taus                           94 	 0.04 	 0.0224
	 has >=1 other taus                            2277 	 24.22 	 0.5421

