Counter events :
	 all events                                    4200 	 1.00 	 1.0000
	 has >=1 tau at preselection                   2295 	 0.55 	 0.5464
	 has >=1 selected taus                           84 	 0.04 	 0.0200
	 has >=1 other taus                            2257 	 26.87 	 0.5374

