Counter events :
	 all events                                    4200 	 1.00 	 1.0000
	 has >=1 tau at preselection                   2303 	 0.55 	 0.5483
	 has >=1 selected taus                          108 	 0.05 	 0.0257
	 has >=1 other taus                            2262 	 20.94 	 0.5386

