Counter events :
	 all events                                    4200 	 1.00 	 1.0000
	 has >=1 gamma at preselection                  980 	 0.23 	 0.2333
	 has >=1 selected gamma                          24 	 0.02 	 0.0057

