Counter events :
	 all events                                    4200 	 1.00 	 1.0000
	 has >=1 tau at preselection                   2278 	 0.54 	 0.5424
	 has >=1 selected taus                          104 	 0.05 	 0.0248
	 has >=1 other taus                            2234 	 21.48 	 0.5319

